	process	region	category	systematic	variable	variable_low	variable_high	content	error
0	Data	Signal	eq0b::eq1j::200::400	nominal	mht	200	inf	76	63
1	Data	Signal	eq0b::eq1j::200::400	nominal	mht	200	inf	69	53
2	Data	Signal	eq0b::eq1j::200::400	nominal	mht	200	inf	4	14
3	Data	Signal	eq0b::eq1j::200::400	nominal	mht	200	inf	88	58
4	Data	Signal	eq0b::eq1j::400::600	nominal	mht	400	inf	53	88
5	Data	Signal	eq0b::eq1j::400::600	nominal	mht	400	inf	49	62
6	Data	Signal	eq0b::eq1j::600::900	nominal	mht	600	inf	4	37
7	Data	Signal	eq0b::eq1j::600::900	nominal	mht	600	inf	73	34
8	Data	Signal	eq0b::eq1j::900::inf	nominal	mht	900	inf	22	81
9	Data	Signal	eq1b::eq1j::200::400	nominal	mht	200	inf	98	90
10	Data	Signal	eq1b::eq1j::200::400	nominal	mht	200	inf	10	93
11	Data	Signal	eq1b::eq1j::200::400	nominal	mht	200	inf	59	71
12	Data	Signal	eq1b::eq1j::200::400	nominal	mht	200	inf	7	65
13	Data	Signal	eq1b::eq1j::400::600	nominal	mht	400	inf	74	66
14	Data	Signal	eq1b::eq1j::400::600	nominal	mht	400	inf	5	16
15	Data	Signal	eq1b::eq1j::600::inf	nominal	mht	600	inf	54	75
16	Data	Signal	eq0b::eq2j::200::400	nominal	mht	200	inf	35	83
17	Data	Signal	eq0b::eq2j::200::400	nominal	mht	200	inf	43	84
18	Data	Signal	eq0b::eq2j::200::400	nominal	mht	200	inf	31	32
19	Data	Signal	eq0b::eq2j::200::400	nominal	mht	200	inf	45	33
20	Data	Signal	eq0b::eq2j::400::600	nominal	mht	200	400.0	91	13
21	Data	Signal	eq0b::eq2j::400::600	nominal	mht	400	inf	25	84
22	Data	Signal	eq0b::eq2j::400::600	nominal	mht	200	400.0	13	20
23	Data	Signal	eq0b::eq2j::400::600	nominal	mht	400	inf	76	26
24	Data	Signal	eq0b::eq2j::600::900	nominal	mht	200	400.0	93	44
25	Data	Signal	eq0b::eq2j::600::900	nominal	mht	400	600.0	27	72
26	Data	Signal	eq0b::eq2j::600::900	nominal	mht	600	inf	77	77
27	Data	Signal	eq0b::eq2j::600::900	nominal	mht	200	400.0	54	69
28	Data	Signal	eq0b::eq2j::600::900	nominal	mht	400	600.0	37	35
29	Data	Signal	eq0b::eq2j::600::900	nominal	mht	600	inf	72	37
30	Data	Signal	eq0b::eq2j::900::1200	nominal	mht	200	400.0	0	99
31	Data	Signal	eq0b::eq2j::900::1200	nominal	mht	400	600.0	3	37
32	Data	Signal	eq0b::eq2j::900::1200	nominal	mht	600	900.0	73	46
33	Data	Signal	eq0b::eq2j::900::1200	nominal	mht	900	inf	84	99
34	Data	Signal	eq0b::eq2j::900::1200	nominal	mht	200	400.0	97	78
35	Data	Signal	eq0b::eq2j::900::1200	nominal	mht	400	600.0	72	43
36	Data	Signal	eq0b::eq2j::900::1200	nominal	mht	600	900.0	49	66
37	Data	Signal	eq0b::eq2j::900::1200	nominal	mht	900	inf	56	64
38	Data	Signal	eq0b::eq2j::1200::inf	nominal	mht	200	400.0	3	3
39	Data	Signal	eq0b::eq2j::1200::inf	nominal	mht	400	600.0	0	47
40	Data	Signal	eq0b::eq2j::1200::inf	nominal	mht	600	900.0	31	43
41	Data	Signal	eq0b::eq2j::1200::inf	nominal	mht	900	inf	59	63
42	Data	Signal	eq1b::eq2j::200::400	nominal	mht	200	inf	29	99
43	Data	Signal	eq1b::eq2j::200::400	nominal	mht	200	inf	22	75
44	Data	Signal	eq1b::eq2j::200::400	nominal	mht	200	inf	67	26
45	Data	Signal	eq1b::eq2j::200::400	nominal	mht	200	inf	48	91
46	Data	Signal	eq1b::eq2j::400::600	nominal	mht	200	400.0	8	64
47	Data	Signal	eq1b::eq2j::400::600	nominal	mht	400	inf	63	70
48	Data	Signal	eq1b::eq2j::400::600	nominal	mht	200	400.0	66	11
49	Data	Signal	eq1b::eq2j::400::600	nominal	mht	400	inf	1	19
50	Data	Signal	eq1b::eq2j::600::900	nominal	mht	200	400.0	91	83
51	Data	Signal	eq1b::eq2j::600::900	nominal	mht	400	600.0	97	55
52	Data	Signal	eq1b::eq2j::600::900	nominal	mht	600	inf	83	43
53	Data	Signal	eq1b::eq2j::600::900	nominal	mht	200	400.0	5	38
54	Data	Signal	eq1b::eq2j::600::900	nominal	mht	400	600.0	54	60
55	Data	Signal	eq1b::eq2j::600::900	nominal	mht	600	inf	97	80
56	Data	Signal	eq1b::eq2j::900::1200	nominal	mht	200	400.0	81	2
57	Data	Signal	eq1b::eq2j::900::1200	nominal	mht	400	600.0	4	62
58	Data	Signal	eq1b::eq2j::900::1200	nominal	mht	600	900.0	91	2
59	Data	Signal	eq1b::eq2j::900::1200	nominal	mht	900	inf	77	21
60	Data	Signal	eq1b::eq2j::900::1200	nominal	mht	200	400.0	2	8
61	Data	Signal	eq1b::eq2j::900::1200	nominal	mht	400	600.0	43	73
62	Data	Signal	eq1b::eq2j::900::1200	nominal	mht	600	900.0	52	1
63	Data	Signal	eq1b::eq2j::900::1200	nominal	mht	900	inf	80	41
64	Data	Signal	eq1b::eq2j::1200::inf	nominal	mht	200	400.0	19	76
65	Data	Signal	eq1b::eq2j::1200::inf	nominal	mht	400	600.0	91	41
66	Data	Signal	eq1b::eq2j::1200::inf	nominal	mht	600	900.0	14	51
67	Data	Signal	eq1b::eq2j::1200::inf	nominal	mht	900	inf	31	67
68	Data	Signal	eq2b::eq2j::200::400	nominal	mht	200	inf	44	89
69	Data	Signal	eq2b::eq2j::200::400	nominal	mht	200	inf	26	70
70	Data	Signal	eq2b::eq2j::200::400	nominal	mht	200	inf	42	84
71	Data	Signal	eq2b::eq2j::200::400	nominal	mht	200	inf	57	30
72	Data	Signal	eq2b::eq2j::400::600	nominal	mht	200	400.0	56	72
73	Data	Signal	eq2b::eq2j::400::600	nominal	mht	400	inf	18	69
74	Data	Signal	eq2b::eq2j::400::600	nominal	mht	200	400.0	99	48
75	Data	Signal	eq2b::eq2j::400::600	nominal	mht	400	inf	57	28
76	Data	Signal	eq2b::eq2j::600::inf	nominal	mht	200	400.0	93	64
77	Data	Signal	eq2b::eq2j::600::inf	nominal	mht	400	600.0	14	66
78	Data	Signal	eq2b::eq2j::600::inf	nominal	mht	600	inf	96	18
79	Data	Signal	eq0b::eq3j::200::400	nominal	mht	200	inf	93	65
80	Data	Signal	eq0b::eq3j::200::400	nominal	mht	200	inf	90	39
81	Data	Signal	eq0b::eq3j::200::400	nominal	mht	200	inf	76	8
82	Data	Signal	eq0b::eq3j::200::400	nominal	mht	200	inf	68	28
83	Data	Signal	eq0b::eq3j::400::600	nominal	mht	200	400.0	99	1
84	Data	Signal	eq0b::eq3j::400::600	nominal	mht	400	inf	50	33
85	Data	Signal	eq0b::eq3j::400::600	nominal	mht	200	400.0	78	26
86	Data	Signal	eq0b::eq3j::400::600	nominal	mht	400	inf	7	76
87	Data	Signal	eq0b::eq3j::600::900	nominal	mht	200	400.0	24	17
88	Data	Signal	eq0b::eq3j::600::900	nominal	mht	400	600.0	67	6
89	Data	Signal	eq0b::eq3j::600::900	nominal	mht	600	inf	90	54
90	Data	Signal	eq0b::eq3j::600::900	nominal	mht	200	400.0	16	58
91	Data	Signal	eq0b::eq3j::600::900	nominal	mht	400	600.0	85	40
92	Data	Signal	eq0b::eq3j::600::900	nominal	mht	600	inf	78	49
93	Data	Signal	eq0b::eq3j::900::1200	nominal	mht	200	400.0	20	3
94	Data	Signal	eq0b::eq3j::900::1200	nominal	mht	400	600.0	65	1
95	Data	Signal	eq0b::eq3j::900::1200	nominal	mht	600	900.0	68	38
96	Data	Signal	eq0b::eq3j::900::1200	nominal	mht	900	inf	34	18
97	Data	Signal	eq0b::eq3j::900::1200	nominal	mht	200	400.0	87	66
98	Data	Signal	eq0b::eq3j::900::1200	nominal	mht	400	600.0	7	39
99	Data	Signal	eq0b::eq3j::900::1200	nominal	mht	600	900.0	3	97
100	Data	Signal	eq0b::eq3j::900::1200	nominal	mht	900	inf	28	11
101	Data	Signal	eq0b::eq3j::1200::inf	nominal	mht	200	400.0	94	66
102	Data	Signal	eq0b::eq3j::1200::inf	nominal	mht	400	600.0	34	28
103	Data	Signal	eq0b::eq3j::1200::inf	nominal	mht	600	900.0	53	91
104	Data	Signal	eq0b::eq3j::1200::inf	nominal	mht	900	inf	71	95
105	Data	Signal	eq1b::eq3j::200::400	nominal	mht	200	inf	49	40
106	Data	Signal	eq1b::eq3j::200::400	nominal	mht	200	inf	52	25
107	Data	Signal	eq1b::eq3j::200::400	nominal	mht	200	inf	17	53
108	Data	Signal	eq1b::eq3j::200::400	nominal	mht	200	inf	3	80
109	Data	Signal	eq1b::eq3j::400::600	nominal	mht	200	400.0	49	67
110	Data	Signal	eq1b::eq3j::400::600	nominal	mht	400	inf	12	41
111	Data	Signal	eq1b::eq3j::400::600	nominal	mht	200	400.0	61	3
112	Data	Signal	eq1b::eq3j::400::600	nominal	mht	400	inf	45	17
113	Data	Signal	eq1b::eq3j::600::900	nominal	mht	200	400.0	71	79
114	Data	Signal	eq1b::eq3j::600::900	nominal	mht	400	600.0	38	92
115	Data	Signal	eq1b::eq3j::600::900	nominal	mht	600	inf	3	56
116	Data	Signal	eq1b::eq3j::600::900	nominal	mht	200	400.0	61	10
117	Data	Signal	eq1b::eq3j::600::900	nominal	mht	400	600.0	85	51
118	Data	Signal	eq1b::eq3j::600::900	nominal	mht	600	inf	76	68
119	Data	Signal	eq1b::eq3j::900::1200	nominal	mht	200	400.0	8	22
120	Data	Signal	eq1b::eq3j::900::1200	nominal	mht	400	600.0	73	98
121	Data	Signal	eq1b::eq3j::900::1200	nominal	mht	600	900.0	47	24
122	Data	Signal	eq1b::eq3j::900::1200	nominal	mht	900	inf	99	88
123	Data	Signal	eq1b::eq3j::900::1200	nominal	mht	200	400.0	72	1
124	Data	Signal	eq1b::eq3j::900::1200	nominal	mht	400	600.0	9	86
125	Data	Signal	eq1b::eq3j::900::1200	nominal	mht	600	900.0	87	5
126	Data	Signal	eq1b::eq3j::900::1200	nominal	mht	900	inf	53	42
127	Data	Signal	eq1b::eq3j::1200::inf	nominal	mht	200	400.0	86	88
128	Data	Signal	eq1b::eq3j::1200::inf	nominal	mht	400	600.0	36	85
129	Data	Signal	eq1b::eq3j::1200::inf	nominal	mht	600	900.0	44	78
130	Data	Signal	eq1b::eq3j::1200::inf	nominal	mht	900	inf	92	45
131	Data	Signal	eq2b::eq3j::200::400	nominal	mht	200	inf	0	0
132	Data	Signal	eq2b::eq3j::200::400	nominal	mht	200	inf	27	38
133	Data	Signal	eq2b::eq3j::200::400	nominal	mht	200	inf	95	65
134	Data	Signal	eq2b::eq3j::200::400	nominal	mht	200	inf	83	16
135	Data	Signal	eq2b::eq3j::400::600	nominal	mht	200	400.0	42	12
136	Data	Signal	eq2b::eq3j::400::600	nominal	mht	400	inf	89	32
137	Data	Signal	eq2b::eq3j::400::600	nominal	mht	200	400.0	25	73
138	Data	Signal	eq2b::eq3j::400::600	nominal	mht	400	inf	38	42
139	Data	Signal	eq2b::eq3j::600::900	nominal	mht	200	400.0	34	49
140	Data	Signal	eq2b::eq3j::600::900	nominal	mht	400	600.0	77	57
141	Data	Signal	eq2b::eq3j::600::900	nominal	mht	600	inf	11	14
142	Data	Signal	eq2b::eq3j::600::900	nominal	mht	200	400.0	25	47
143	Data	Signal	eq2b::eq3j::600::900	nominal	mht	400	600.0	59	80
144	Data	Signal	eq2b::eq3j::600::900	nominal	mht	600	inf	0	0
145	Data	Signal	eq2b::eq3j::900::1200	nominal	mht	200	400.0	71	0
146	Data	Signal	eq2b::eq3j::900::1200	nominal	mht	400	600.0	6	28
147	Data	Signal	eq2b::eq3j::900::1200	nominal	mht	600	900.0	49	22
148	Data	Signal	eq2b::eq3j::900::1200	nominal	mht	900	inf	0	0
149	Data	Signal	eq2b::eq3j::900::1200	nominal	mht	200	400.0	0	0
150	Data	Signal	eq2b::eq3j::900::1200	nominal	mht	400	600.0	0	0
151	Data	Signal	eq2b::eq3j::900::1200	nominal	mht	600	900.0	92	32
152	Data	Signal	eq2b::eq3j::900::1200	nominal	mht	900	inf	0	0
153	Data	Signal	eq2b::eq3j::1200::inf	nominal	mht	200	400.0	17	74
154	Data	Signal	eq2b::eq3j::1200::inf	nominal	mht	400	600.0	0	0
155	Data	Signal	eq2b::eq3j::1200::inf	nominal	mht	600	900.0	0	0
156	Data	Signal	eq2b::eq3j::1200::inf	nominal	mht	900	inf	0	0
157	Data	Signal	eq3b::eq3j::200::400	nominal	mht	200	inf	0	0
158	Data	Signal	eq3b::eq3j::200::400	nominal	mht	200	inf	93	32
159	Data	Signal	eq3b::eq3j::200::400	nominal	mht	200	inf	10	21
160	Data	Signal	eq3b::eq3j::200::400	nominal	mht	200	inf	89	30
161	Data	Signal	eq3b::eq3j::400::600	nominal	mht	200	400.0	52	66
162	Data	Signal	eq3b::eq3j::400::600	nominal	mht	400	inf	47	57
163	Data	Signal	eq3b::eq3j::400::600	nominal	mht	200	400.0	97	53
164	Data	Signal	eq3b::eq3j::400::600	nominal	mht	400	inf	95	27
165	Data	Signal	eq3b::eq3j::600::inf	nominal	mht	200	400.0	79	28
166	Data	Signal	eq3b::eq3j::600::inf	nominal	mht	400	600.0	98	37
167	Data	Signal	eq3b::eq3j::600::inf	nominal	mht	600	inf	0	0
168	Data	Signal	eq0b::eq4j::400::600	nominal	mht	200	400.0	20	78
169	Data	Signal	eq0b::eq4j::400::600	nominal	mht	400	inf	79	5
170	Data	Signal	eq0b::eq4j::400::600	nominal	mht	200	400.0	7	7
171	Data	Signal	eq0b::eq4j::400::600	nominal	mht	400	inf	44	38
172	Data	Signal	eq0b::eq4j::600::900	nominal	mht	200	400.0	30	96
173	Data	Signal	eq0b::eq4j::600::900	nominal	mht	400	600.0	61	74
174	Data	Signal	eq0b::eq4j::600::900	nominal	mht	600	inf	33	64
175	Data	Signal	eq0b::eq4j::600::900	nominal	mht	200	400.0	54	21
176	Data	Signal	eq0b::eq4j::600::900	nominal	mht	400	600.0	9	53
177	Data	Signal	eq0b::eq4j::600::900	nominal	mht	600	inf	6	64
178	Data	Signal	eq0b::eq4j::900::1200	nominal	mht	200	400.0	7	96
179	Data	Signal	eq0b::eq4j::900::1200	nominal	mht	400	600.0	70	64
180	Data	Signal	eq0b::eq4j::900::1200	nominal	mht	600	900.0	42	45
181	Data	Signal	eq0b::eq4j::900::1200	nominal	mht	900	inf	33	88
182	Data	Signal	eq0b::eq4j::900::1200	nominal	mht	200	400.0	81	6
183	Data	Signal	eq0b::eq4j::900::1200	nominal	mht	400	600.0	73	32
184	Data	Signal	eq0b::eq4j::900::1200	nominal	mht	600	900.0	34	88
185	Data	Signal	eq0b::eq4j::900::1200	nominal	mht	900	inf	30	13
186	Data	Signal	eq0b::eq4j::1200::inf	nominal	mht	200	400.0	70	90
187	Data	Signal	eq0b::eq4j::1200::inf	nominal	mht	400	600.0	40	86
188	Data	Signal	eq0b::eq4j::1200::inf	nominal	mht	600	900.0	86	80
189	Data	Signal	eq0b::eq4j::1200::inf	nominal	mht	900	inf	24	16
190	Data	Signal	eq1b::eq4j::400::600	nominal	mht	200	400.0	72	95
191	Data	Signal	eq1b::eq4j::400::600	nominal	mht	400	inf	82	90
192	Data	Signal	eq1b::eq4j::400::600	nominal	mht	200	400.0	31	75
193	Data	Signal	eq1b::eq4j::400::600	nominal	mht	400	inf	53	48
194	Data	Signal	eq1b::eq4j::600::900	nominal	mht	200	400.0	13	13
195	Data	Signal	eq1b::eq4j::600::900	nominal	mht	400	600.0	41	71
196	Data	Signal	eq1b::eq4j::600::900	nominal	mht	600	inf	43	14
197	Data	Signal	eq1b::eq4j::600::900	nominal	mht	200	400.0	53	27
198	Data	Signal	eq1b::eq4j::600::900	nominal	mht	400	600.0	32	99
199	Data	Signal	eq1b::eq4j::600::900	nominal	mht	600	inf	78	53
200	Data	Signal	eq1b::eq4j::900::1200	nominal	mht	200	400.0	5	54
201	Data	Signal	eq1b::eq4j::900::1200	nominal	mht	400	600.0	77	1
202	Data	Signal	eq1b::eq4j::900::1200	nominal	mht	600	900.0	23	49
203	Data	Signal	eq1b::eq4j::900::1200	nominal	mht	900	inf	47	61
204	Data	Signal	eq1b::eq4j::900::1200	nominal	mht	200	400.0	89	44
205	Data	Signal	eq1b::eq4j::900::1200	nominal	mht	400	600.0	86	71
206	Data	Signal	eq1b::eq4j::900::1200	nominal	mht	600	900.0	59	21
207	Data	Signal	eq1b::eq4j::900::1200	nominal	mht	900	inf	0	0
208	Data	Signal	eq1b::eq4j::1200::inf	nominal	mht	200	400.0	42	46
209	Data	Signal	eq1b::eq4j::1200::inf	nominal	mht	400	600.0	97	87
210	Data	Signal	eq1b::eq4j::1200::inf	nominal	mht	600	900.0	87	29
211	Data	Signal	eq1b::eq4j::1200::inf	nominal	mht	900	inf	24	30
212	Data	Signal	eq2b::eq4j::400::600	nominal	mht	200	400.0	64	14
213	Data	Signal	eq2b::eq4j::400::600	nominal	mht	400	inf	77	59
214	Data	Signal	eq2b::eq4j::400::600	nominal	mht	200	400.0	26	41
215	Data	Signal	eq2b::eq4j::400::600	nominal	mht	400	inf	73	31
216	Data	Signal	eq2b::eq4j::600::900	nominal	mht	200	400.0	6	43
217	Data	Signal	eq2b::eq4j::600::900	nominal	mht	400	600.0	11	54
218	Data	Signal	eq2b::eq4j::600::900	nominal	mht	600	inf	4	98
219	Data	Signal	eq2b::eq4j::600::900	nominal	mht	200	400.0	61	88
220	Data	Signal	eq2b::eq4j::600::900	nominal	mht	400	600.0	68	91
221	Data	Signal	eq2b::eq4j::600::900	nominal	mht	600	inf	0	0
222	Data	Signal	eq2b::eq4j::900::1200	nominal	mht	200	400.0	57	28
223	Data	Signal	eq2b::eq4j::900::1200	nominal	mht	400	600.0	26	50
224	Data	Signal	eq2b::eq4j::900::1200	nominal	mht	600	900.0	0	0
225	Data	Signal	eq2b::eq4j::900::1200	nominal	mht	900	inf	42	31
226	Data	Signal	eq2b::eq4j::900::1200	nominal	mht	200	400.0	81	24
227	Data	Signal	eq2b::eq4j::900::1200	nominal	mht	400	600.0	87	78
228	Data	Signal	eq2b::eq4j::900::1200	nominal	mht	600	900.0	0	0
229	Data	Signal	eq2b::eq4j::900::1200	nominal	mht	900	inf	0	0
230	Data	Signal	eq2b::eq4j::1200::inf	nominal	mht	200	400.0	51	87
231	Data	Signal	eq2b::eq4j::1200::inf	nominal	mht	400	600.0	0	0
232	Data	Signal	eq2b::eq4j::1200::inf	nominal	mht	600	900.0	0	0
233	Data	Signal	eq2b::eq4j::1200::inf	nominal	mht	900	inf	48	26
234	Data	Signal	eq3b::eq4j::400::600	nominal	mht	200	400.0	69	25
235	Data	Signal	eq3b::eq4j::400::600	nominal	mht	400	inf	0	0
236	Data	Signal	eq3b::eq4j::400::600	nominal	mht	200	400.0	60	97
237	Data	Signal	eq3b::eq4j::400::600	nominal	mht	400	inf	9	26
238	Data	Signal	eq3b::eq4j::600::900	nominal	mht	200	400.0	10	76
239	Data	Signal	eq3b::eq4j::600::900	nominal	mht	400	600.0	0	0
240	Data	Signal	eq3b::eq4j::600::900	nominal	mht	600	inf	0	0
241	Data	Signal	eq3b::eq4j::600::900	nominal	mht	200	400.0	14	80
242	Data	Signal	eq3b::eq4j::600::900	nominal	mht	400	600.0	0	0
243	Data	Signal	eq3b::eq4j::600::900	nominal	mht	600	inf	0	0
244	Data	Signal	eq3b::eq4j::900::inf	nominal	mht	200	400.0	0	0
245	Data	Signal	eq3b::eq4j::900::inf	nominal	mht	400	600.0	0	0
246	Data	Signal	eq3b::eq4j::900::inf	nominal	mht	600	900.0	0	0
247	Data	Signal	eq3b::eq4j::900::inf	nominal	mht	900	inf	0	0
248	Data	Signal	eq0b::eq5j::400::600	nominal	mht	200	400.0	72	77
249	Data	Signal	eq0b::eq5j::400::600	nominal	mht	400	inf	40	15
250	Data	Signal	eq0b::eq5j::400::600	nominal	mht	200	400.0	89	37
251	Data	Signal	eq0b::eq5j::400::600	nominal	mht	400	inf	80	42
252	Data	Signal	eq0b::eq5j::600::900	nominal	mht	200	400.0	6	37
253	Data	Signal	eq0b::eq5j::600::900	nominal	mht	400	600.0	8	3
254	Data	Signal	eq0b::eq5j::600::900	nominal	mht	600	inf	39	28
255	Data	Signal	eq0b::eq5j::600::900	nominal	mht	200	400.0	66	10
256	Data	Signal	eq0b::eq5j::600::900	nominal	mht	400	600.0	66	54
257	Data	Signal	eq0b::eq5j::600::900	nominal	mht	600	inf	5	89
258	Data	Signal	eq0b::eq5j::900::1200	nominal	mht	200	400.0	45	87
259	Data	Signal	eq0b::eq5j::900::1200	nominal	mht	400	600.0	30	2
260	Data	Signal	eq0b::eq5j::900::1200	nominal	mht	600	inf	41	50
261	Data	Signal	eq0b::eq5j::900::1200	nominal	mht	200	400.0	7	54
262	Data	Signal	eq0b::eq5j::900::1200	nominal	mht	400	600.0	41	59
263	Data	Signal	eq0b::eq5j::900::1200	nominal	mht	600	inf	92	21
264	Data	Signal	eq0b::eq5j::1200::inf	nominal	mht	200	400.0	71	28
265	Data	Signal	eq0b::eq5j::1200::inf	nominal	mht	400	600.0	38	92
266	Data	Signal	eq0b::eq5j::1200::inf	nominal	mht	600	900.0	50	95
267	Data	Signal	eq0b::eq5j::1200::inf	nominal	mht	900	inf	77	98
268	Data	Signal	eq1b::eq5j::400::600	nominal	mht	200	400.0	25	73
269	Data	Signal	eq1b::eq5j::400::600	nominal	mht	400	inf	54	82
270	Data	Signal	eq1b::eq5j::400::600	nominal	mht	200	400.0	23	31
271	Data	Signal	eq1b::eq5j::400::600	nominal	mht	400	inf	17	26
272	Data	Signal	eq1b::eq5j::600::900	nominal	mht	200	400.0	40	49
273	Data	Signal	eq1b::eq5j::600::900	nominal	mht	400	600.0	3	32
274	Data	Signal	eq1b::eq5j::600::900	nominal	mht	600	inf	70	25
275	Data	Signal	eq1b::eq5j::600::900	nominal	mht	200	400.0	9	2
276	Data	Signal	eq1b::eq5j::600::900	nominal	mht	400	600.0	62	85
277	Data	Signal	eq1b::eq5j::600::900	nominal	mht	600	inf	91	10
278	Data	Signal	eq1b::eq5j::900::1200	nominal	mht	200	400.0	90	13
279	Data	Signal	eq1b::eq5j::900::1200	nominal	mht	400	600.0	70	79
280	Data	Signal	eq1b::eq5j::900::1200	nominal	mht	600	inf	6	51
281	Data	Signal	eq1b::eq5j::900::1200	nominal	mht	200	400.0	41	16
282	Data	Signal	eq1b::eq5j::900::1200	nominal	mht	400	600.0	79	22
283	Data	Signal	eq1b::eq5j::900::1200	nominal	mht	600	inf	7	30
284	Data	Signal	eq1b::eq5j::1200::inf	nominal	mht	200	400.0	71	64
285	Data	Signal	eq1b::eq5j::1200::inf	nominal	mht	400	600.0	54	96
286	Data	Signal	eq1b::eq5j::1200::inf	nominal	mht	600	900.0	4	75
287	Data	Signal	eq1b::eq5j::1200::inf	nominal	mht	900	inf	38	83
288	Data	Signal	eq2b::eq5j::400::600	nominal	mht	200	400.0	68	39
289	Data	Signal	eq2b::eq5j::400::600	nominal	mht	400	inf	0	0
290	Data	Signal	eq2b::eq5j::400::600	nominal	mht	200	400.0	26	41
291	Data	Signal	eq2b::eq5j::400::600	nominal	mht	400	inf	96	71
292	Data	Signal	eq2b::eq5j::600::900	nominal	mht	200	400.0	92	61
293	Data	Signal	eq2b::eq5j::600::900	nominal	mht	400	600.0	85	16
294	Data	Signal	eq2b::eq5j::600::900	nominal	mht	600	inf	0	0
295	Data	Signal	eq2b::eq5j::600::900	nominal	mht	200	400.0	66	69
296	Data	Signal	eq2b::eq5j::600::900	nominal	mht	400	600.0	99	10
297	Data	Signal	eq2b::eq5j::600::900	nominal	mht	600	inf	0	0
298	Data	Signal	eq2b::eq5j::900::1200	nominal	mht	200	400.0	69	51
299	Data	Signal	eq2b::eq5j::900::1200	nominal	mht	400	600.0	75	46
300	Data	Signal	eq2b::eq5j::900::1200	nominal	mht	600	inf	0	0
301	Data	Signal	eq2b::eq5j::900::1200	nominal	mht	200	400.0	15	35
302	Data	Signal	eq2b::eq5j::900::1200	nominal	mht	400	600.0	74	67
303	Data	Signal	eq2b::eq5j::900::1200	nominal	mht	600	inf	17	40
304	Data	Signal	eq2b::eq5j::1200::inf	nominal	mht	200	400.0	0	0
305	Data	Signal	eq2b::eq5j::1200::inf	nominal	mht	400	600.0	26	5
306	Data	Signal	eq2b::eq5j::1200::inf	nominal	mht	600	900.0	18	4
307	Data	Signal	eq2b::eq5j::1200::inf	nominal	mht	900	inf	53	85
308	Data	Signal	eq3b::eq5j::400::600	nominal	mht	200	400.0	47	70
309	Data	Signal	eq3b::eq5j::400::600	nominal	mht	400	inf	8	25
310	Data	Signal	eq3b::eq5j::400::600	nominal	mht	200	400.0	83	53
311	Data	Signal	eq3b::eq5j::400::600	nominal	mht	400	inf	0	0
312	Data	Signal	eq3b::eq5j::600::900	nominal	mht	200	400.0	13	34
313	Data	Signal	eq3b::eq5j::600::900	nominal	mht	400	600.0	48	71
314	Data	Signal	eq3b::eq5j::600::900	nominal	mht	600	inf	0	0
315	Data	Signal	eq3b::eq5j::600::900	nominal	mht	200	400.0	13	88
316	Data	Signal	eq3b::eq5j::600::900	nominal	mht	400	600.0	42	64
317	Data	Signal	eq3b::eq5j::600::900	nominal	mht	600	inf	0	0
318	Data	Signal	eq3b::eq5j::900::inf	nominal	mht	200	400.0	0	0
319	Data	Signal	eq3b::eq5j::900::inf	nominal	mht	400	600.0	0	0
320	Data	Signal	eq3b::eq5j::900::inf	nominal	mht	600	inf	0	0
321	Data	Signal	ge4b::eq5j::400::inf	nominal	mht	200	400.0	0	84
322	Data	Signal	ge4b::eq5j::400::inf	nominal	mht	400	inf	17	69
323	Data	Signal	eq0b::ge6j::400::600	nominal	mht	200	inf	23	40
324	Data	Signal	eq0b::ge6j::400::600	nominal	mht	200	inf	91	62
325	Data	Signal	eq0b::ge6j::600::900	nominal	mht	200	400.0	51	27
326	Data	Signal	eq0b::ge6j::600::900	nominal	mht	400	inf	37	61
327	Data	Signal	eq0b::ge6j::600::900	nominal	mht	200	400.0	35	59
328	Data	Signal	eq0b::ge6j::600::900	nominal	mht	400	inf	94	95
329	Data	Signal	eq0b::ge6j::900::1200	nominal	mht	200	400.0	23	69
330	Data	Signal	eq0b::ge6j::900::1200	nominal	mht	400	600.0	20	97
331	Data	Signal	eq0b::ge6j::900::1200	nominal	mht	600	inf	44	13
332	Data	Signal	eq0b::ge6j::900::1200	nominal	mht	200	400.0	98	75
333	Data	Signal	eq0b::ge6j::900::1200	nominal	mht	400	600.0	68	18
334	Data	Signal	eq0b::ge6j::900::1200	nominal	mht	600	inf	85	99
335	Data	Signal	eq0b::ge6j::1200::inf	nominal	mht	200	400.0	59	67
336	Data	Signal	eq0b::ge6j::1200::inf	nominal	mht	400	600.0	69	72
337	Data	Signal	eq0b::ge6j::1200::inf	nominal	mht	600	900.0	70	27
338	Data	Signal	eq0b::ge6j::1200::inf	nominal	mht	900	inf	7	29
339	Data	Signal	eq1b::ge6j::400::600	nominal	mht	200	inf	38	23
340	Data	Signal	eq1b::ge6j::400::600	nominal	mht	200	inf	92	24
341	Data	Signal	eq1b::ge6j::600::900	nominal	mht	200	400.0	28	86
342	Data	Signal	eq1b::ge6j::600::900	nominal	mht	400	inf	6	15
343	Data	Signal	eq1b::ge6j::600::900	nominal	mht	200	400.0	4	99
344	Data	Signal	eq1b::ge6j::600::900	nominal	mht	400	inf	37	40
345	Data	Signal	eq1b::ge6j::900::1200	nominal	mht	200	400.0	75	91
346	Data	Signal	eq1b::ge6j::900::1200	nominal	mht	400	600.0	76	28
347	Data	Signal	eq1b::ge6j::900::1200	nominal	mht	600	inf	0	0
348	Data	Signal	eq1b::ge6j::900::1200	nominal	mht	200	400.0	40	12
349	Data	Signal	eq1b::ge6j::900::1200	nominal	mht	400	600.0	15	69
350	Data	Signal	eq1b::ge6j::900::1200	nominal	mht	600	inf	5	38
351	Data	Signal	eq1b::ge6j::1200::inf	nominal	mht	200	400.0	5	75
352	Data	Signal	eq1b::ge6j::1200::inf	nominal	mht	400	600.0	73	81
353	Data	Signal	eq1b::ge6j::1200::inf	nominal	mht	600	900.0	72	0
354	Data	Signal	eq1b::ge6j::1200::inf	nominal	mht	900	inf	0	0
355	Data	Signal	eq2b::ge6j::400::600	nominal	mht	200	inf	4	94
356	Data	Signal	eq2b::ge6j::400::600	nominal	mht	200	inf	39	72
357	Data	Signal	eq2b::ge6j::600::900	nominal	mht	200	400.0	33	32
358	Data	Signal	eq2b::ge6j::600::900	nominal	mht	400	inf	86	0
359	Data	Signal	eq2b::ge6j::600::900	nominal	mht	200	400.0	20	39
360	Data	Signal	eq2b::ge6j::600::900	nominal	mht	400	inf	81	64
361	Data	Signal	eq2b::ge6j::900::1200	nominal	mht	200	400.0	17	57
362	Data	Signal	eq2b::ge6j::900::1200	nominal	mht	400	600.0	11	70
363	Data	Signal	eq2b::ge6j::900::1200	nominal	mht	600	inf	0	0
364	Data	Signal	eq2b::ge6j::900::1200	nominal	mht	200	400.0	66	81
365	Data	Signal	eq2b::ge6j::900::1200	nominal	mht	400	600.0	64	11
366	Data	Signal	eq2b::ge6j::900::1200	nominal	mht	600	inf	0	0
367	Data	Signal	eq2b::ge6j::1200::inf	nominal	mht	200	400.0	0	0
368	Data	Signal	eq2b::ge6j::1200::inf	nominal	mht	400	600.0	0	0
369	Data	Signal	eq2b::ge6j::1200::inf	nominal	mht	600	900.0	46	80
370	Data	Signal	eq2b::ge6j::1200::inf	nominal	mht	900	inf	0	0
371	Data	Signal	eq3b::ge6j::400::600	nominal	mht	200	inf	53	85
372	Data	Signal	eq3b::ge6j::400::600	nominal	mht	200	inf	9	53
373	Data	Signal	eq3b::ge6j::600::900	nominal	mht	200	400.0	61	11
374	Data	Signal	eq3b::ge6j::600::900	nominal	mht	400	inf	80	40
375	Data	Signal	eq3b::ge6j::600::900	nominal	mht	200	400.0	11	84
376	Data	Signal	eq3b::ge6j::600::900	nominal	mht	400	inf	75	42
377	Data	Signal	eq3b::ge6j::900::1200	nominal	mht	200	400.0	0	73
378	Data	Signal	eq3b::ge6j::900::1200	nominal	mht	400	600.0	0	0
379	Data	Signal	eq3b::ge6j::900::1200	nominal	mht	600	inf	0	0
380	Data	Signal	eq3b::ge6j::900::1200	nominal	mht	200	400.0	61	23
381	Data	Signal	eq3b::ge6j::900::1200	nominal	mht	400	600.0	0	0
382	Data	Signal	eq3b::ge6j::900::1200	nominal	mht	600	inf	0	0
383	Data	Signal	eq3b::ge6j::1200::inf	nominal	mht	200	400.0	86	51
384	Data	Signal	eq3b::ge6j::1200::inf	nominal	mht	400	600.0	0	0
385	Data	Signal	eq3b::ge6j::1200::inf	nominal	mht	600	900.0	17	96
386	Data	Signal	eq3b::ge6j::1200::inf	nominal	mht	900	inf	0	0
387	Data	Signal	ge4b::ge6j::400::inf	nominal	mht	200	inf	29	38
388	Data	Signal	eq0b::ge2a::200::400	nominal	mht	200	inf	32	14
389	Data	Signal	eq0b::ge2a::200::400	nominal	mht	200	inf	45	73
390	Data	Signal	eq0b::ge2a::200::400	nominal	mht	200	inf	35	51
391	Data	Signal	eq0b::ge2a::200::400	nominal	mht	200	inf	52	46
392	Data	Signal	eq0b::ge2a::400::600	nominal	mht	200	400.0	6	43
393	Data	Signal	eq0b::ge2a::400::600	nominal	mht	400	inf	27	74
394	Data	Signal	eq0b::ge2a::400::600	nominal	mht	200	400.0	87	13
395	Data	Signal	eq0b::ge2a::400::600	nominal	mht	400	inf	30	73
396	Data	Signal	eq0b::ge2a::600::900	nominal	mht	200	400.0	96	51
397	Data	Signal	eq0b::ge2a::600::900	nominal	mht	400	600.0	19	89
398	Data	Signal	eq0b::ge2a::600::900	nominal	mht	600	inf	61	61
399	Data	Signal	eq0b::ge2a::600::900	nominal	mht	200	400.0	0	0
400	Data	Signal	eq0b::ge2a::600::900	nominal	mht	400	600.0	41	79
401	Data	Signal	eq0b::ge2a::600::900	nominal	mht	600	inf	79	36
402	Data	Signal	eq0b::ge2a::900::inf	nominal	mht	200	900.0	37	14
403	Data	Signal	eq0b::ge2a::900::inf	nominal	mht	900	inf	97	98
404	Data	Signal	eq1b::ge2a::200::400	nominal	mht	200	inf	79	67
405	Data	Signal	eq1b::ge2a::200::400	nominal	mht	200	inf	75	76
406	Data	Signal	eq1b::ge2a::200::400	nominal	mht	200	inf	38	37
407	Data	Signal	eq1b::ge2a::200::400	nominal	mht	200	inf	15	85
408	Data	Signal	eq1b::ge2a::400::600	nominal	mht	200	400.0	57	19
409	Data	Signal	eq1b::ge2a::400::600	nominal	mht	400	inf	57	53
410	Data	Signal	eq1b::ge2a::400::600	nominal	mht	200	400.0	39	28
411	Data	Signal	eq1b::ge2a::400::600	nominal	mht	400	inf	81	74
412	Data	Signal	eq1b::ge2a::600::900	nominal	mht	200	400.0	91	18
413	Data	Signal	eq1b::ge2a::600::900	nominal	mht	400	600.0	78	41
414	Data	Signal	eq1b::ge2a::600::900	nominal	mht	600	inf	94	50
415	Data	Signal	eq1b::ge2a::600::900	nominal	mht	200	400.0	0	0
416	Data	Signal	eq1b::ge2a::600::900	nominal	mht	400	600.0	0	0
417	Data	Signal	eq1b::ge2a::600::900	nominal	mht	600	inf	19	29
418	Data	Signal	eq1b::ge2a::900::inf	nominal	mht	200	900.0	62	36
419	Data	Signal	eq1b::ge2a::900::inf	nominal	mht	900	inf	2	15
420	Data	Signal	eq2b::ge2a::200::400	nominal	mht	200	inf	41	29
421	Data	Signal	eq2b::ge2a::200::400	nominal	mht	200	inf	3	36
422	Data	Signal	eq2b::ge2a::200::400	nominal	mht	200	inf	44	2
423	Data	Signal	eq2b::ge2a::200::400	nominal	mht	200	inf	63	85
424	Data	Signal	eq2b::ge2a::400::600	nominal	mht	200	400.0	35	65
425	Data	Signal	eq2b::ge2a::400::600	nominal	mht	400	inf	67	60
426	Data	Signal	eq2b::ge2a::400::600	nominal	mht	200	400.0	64	27
427	Data	Signal	eq2b::ge2a::400::600	nominal	mht	400	inf	77	45
428	Data	Signal	eq2b::ge2a::600::900	nominal	mht	200	400.0	80	28
429	Data	Signal	eq2b::ge2a::600::900	nominal	mht	400	600.0	39	32
430	Data	Signal	eq2b::ge2a::600::900	nominal	mht	600	inf	5	86
431	Data	Signal	eq2b::ge2a::600::900	nominal	mht	200	400.0	0	0
432	Data	Signal	eq2b::ge2a::600::900	nominal	mht	400	600.0	0	26
433	Data	Signal	eq2b::ge2a::600::900	nominal	mht	600	inf	0	0
434	Data	Signal	eq2b::ge2a::900::inf	nominal	mht	200	900.0	46	0
435	Data	Signal	eq2b::ge2a::900::inf	nominal	mht	900	inf	0	0
436	Data	Signal	eq3b::ge2a::200::400	nominal	mht	200	inf	75	47
437	Data	Signal	eq3b::ge2a::200::400	nominal	mht	200	inf	1	94
438	Data	Signal	eq3b::ge2a::200::400	nominal	mht	200	inf	42	59
439	Data	Signal	eq3b::ge2a::200::400	nominal	mht	200	inf	88	34
440	Data	Signal	eq3b::ge2a::400::600	nominal	mht	200	400.0	33	18
441	Data	Signal	eq3b::ge2a::400::600	nominal	mht	400	inf	0	0
442	Data	Signal	eq3b::ge2a::400::600	nominal	mht	200	400.0	40	21
443	Data	Signal	eq3b::ge2a::400::600	nominal	mht	400	inf	88	99
444	Data	Signal	eq3b::ge2a::600::inf	nominal	mht	200	400.0	70	81
445	Data	Signal	eq3b::ge2a::600::inf	nominal	mht	400	600.0	0	0
446	Data	Signal	eq3b::ge2a::600::inf	nominal	mht	600	inf	0	0
447	Data	SingleMu	eq0b::eq1j::200::400	nominal	mht	0	inf	57	7
448	Data	SingleMu	eq0b::eq1j::200::400	nominal	mht	0	inf	13	83
449	Data	SingleMu	eq0b::eq1j::200::400	nominal	mht	0	inf	35	28
450	Data	SingleMu	eq0b::eq1j::200::400	nominal	mht	0	inf	82	98
451	Data	DoubleMu	eq0b::eq1j::200::400	nominal	mht	0	inf	87	82
452	Data	DoubleMu	eq0b::eq1j::200::400	nominal	mht	0	inf	81	90
453	Data	DoubleMu	eq0b::eq1j::200::400	nominal	mht	0	inf	15	57
454	Data	DoubleMu	eq0b::eq1j::200::400	nominal	mht	0	inf	13	65
455	Data	SingleMu	eq0b::eq1j::400::600	nominal	mht	0	inf	49	55
456	Data	SingleMu	eq0b::eq1j::400::600	nominal	mht	0	inf	12	98
457	Data	DoubleMu	eq0b::eq1j::400::600	nominal	mht	0	inf	69	31
458	Data	DoubleMu	eq0b::eq1j::400::600	nominal	mht	0	inf	62	22
459	Data	SingleMu	eq0b::eq1j::600::900	nominal	mht	0	inf	90	55
460	Data	SingleMu	eq0b::eq1j::600::900	nominal	mht	0	inf	1	15
461	Data	DoubleMu	eq0b::eq1j::600::900	nominal	mht	0	inf	71	84
462	Data	DoubleMu	eq0b::eq1j::600::900	nominal	mht	0	inf	94	78
463	Data	SingleMu	eq0b::eq1j::900::inf	nominal	mht	0	inf	91	67
464	Data	DoubleMu	eq0b::eq1j::900::inf	nominal	mht	0	inf	37	1
465	Data	SingleMu	eq1b::eq1j::200::400	nominal	mht	0	inf	89	30
466	Data	SingleMu	eq1b::eq1j::200::400	nominal	mht	0	inf	74	52
467	Data	SingleMu	eq1b::eq1j::200::400	nominal	mht	0	inf	30	50
468	Data	SingleMu	eq1b::eq1j::200::400	nominal	mht	0	inf	12	78
469	Data	DoubleMu	eq1b::eq1j::200::400	nominal	mht	0	inf	41	20
470	Data	DoubleMu	eq1b::eq1j::200::400	nominal	mht	0	inf	1	22
471	Data	DoubleMu	eq1b::eq1j::200::400	nominal	mht	0	inf	29	32
472	Data	DoubleMu	eq1b::eq1j::200::400	nominal	mht	0	inf	66	4
473	Data	SingleMu	eq1b::eq1j::400::600	nominal	mht	0	inf	57	95
474	Data	SingleMu	eq1b::eq1j::400::600	nominal	mht	0	inf	68	11
475	Data	DoubleMu	eq1b::eq1j::400::600	nominal	mht	0	inf	97	85
476	Data	DoubleMu	eq1b::eq1j::400::600	nominal	mht	0	inf	36	51
477	Data	SingleMu	eq1b::eq1j::600::inf	nominal	mht	0	inf	20	43
478	Data	DoubleMu	eq1b::eq1j::600::inf	nominal	mht	0	inf	14	61
479	Data	SingleMu	eq0b::eq2j::200::400	nominal	mht	0	inf	69	7
480	Data	SingleMu	eq0b::eq2j::200::400	nominal	mht	0	inf	5	17
481	Data	SingleMu	eq0b::eq2j::200::400	nominal	mht	0	inf	90	73
482	Data	SingleMu	eq0b::eq2j::200::400	nominal	mht	0	inf	50	28
483	Data	DoubleMu	eq0b::eq2j::200::400	nominal	mht	0	inf	6	0
484	Data	DoubleMu	eq0b::eq2j::200::400	nominal	mht	0	inf	22	90
485	Data	DoubleMu	eq0b::eq2j::200::400	nominal	mht	0	inf	57	7
486	Data	DoubleMu	eq0b::eq2j::200::400	nominal	mht	0	inf	49	73
487	Data	SingleMu	eq0b::eq2j::400::600	nominal	mht	0	inf	35	90
488	Data	SingleMu	eq0b::eq2j::400::600	nominal	mht	0	inf	66	60
489	Data	DoubleMu	eq0b::eq2j::400::600	nominal	mht	0	inf	76	32
490	Data	DoubleMu	eq0b::eq2j::400::600	nominal	mht	0	inf	93	97
491	Data	SingleMu	eq0b::eq2j::600::900	nominal	mht	0	inf	47	38
492	Data	SingleMu	eq0b::eq2j::600::900	nominal	mht	0	inf	38	53
493	Data	DoubleMu	eq0b::eq2j::600::900	nominal	mht	0	inf	15	36
494	Data	DoubleMu	eq0b::eq2j::600::900	nominal	mht	0	inf	10	29
495	Data	SingleMu	eq0b::eq2j::900::1200	nominal	mht	0	inf	33	0
496	Data	SingleMu	eq0b::eq2j::900::1200	nominal	mht	0	inf	37	28
497	Data	DoubleMu	eq0b::eq2j::900::1200	nominal	mht	0	inf	12	35
498	Data	DoubleMu	eq0b::eq2j::900::1200	nominal	mht	0	inf	47	68
499	Data	SingleMu	eq0b::eq2j::1200::inf	nominal	mht	0	inf	29	88
500	Data	DoubleMu	eq0b::eq2j::1200::inf	nominal	mht	0	inf	89	39
501	Data	SingleMu	eq1b::eq2j::200::400	nominal	mht	0	inf	46	24
502	Data	SingleMu	eq1b::eq2j::200::400	nominal	mht	0	inf	59	1
503	Data	SingleMu	eq1b::eq2j::200::400	nominal	mht	0	inf	69	62
504	Data	SingleMu	eq1b::eq2j::200::400	nominal	mht	0	inf	61	43
505	Data	DoubleMu	eq1b::eq2j::200::400	nominal	mht	0	inf	39	81
506	Data	DoubleMu	eq1b::eq2j::200::400	nominal	mht	0	inf	15	65
507	Data	DoubleMu	eq1b::eq2j::200::400	nominal	mht	0	inf	81	40
508	Data	DoubleMu	eq1b::eq2j::200::400	nominal	mht	0	inf	17	1
509	Data	SingleMu	eq1b::eq2j::400::600	nominal	mht	0	inf	46	82
510	Data	SingleMu	eq1b::eq2j::400::600	nominal	mht	0	inf	76	80
511	Data	DoubleMu	eq1b::eq2j::400::600	nominal	mht	0	inf	84	13
512	Data	DoubleMu	eq1b::eq2j::400::600	nominal	mht	0	inf	96	13
513	Data	SingleMu	eq1b::eq2j::600::900	nominal	mht	0	inf	19	15
514	Data	SingleMu	eq1b::eq2j::600::900	nominal	mht	0	inf	16	16
515	Data	DoubleMu	eq1b::eq2j::600::900	nominal	mht	0	inf	67	22
516	Data	DoubleMu	eq1b::eq2j::600::900	nominal	mht	0	inf	26	66
517	Data	SingleMu	eq1b::eq2j::900::1200	nominal	mht	0	inf	24	84
518	Data	SingleMu	eq1b::eq2j::900::1200	nominal	mht	0	inf	17	26
519	Data	DoubleMu	eq1b::eq2j::900::1200	nominal	mht	0	inf	53	4
520	Data	DoubleMu	eq1b::eq2j::900::1200	nominal	mht	0	inf	91	85
521	Data	SingleMu	eq1b::eq2j::1200::inf	nominal	mht	0	inf	74	32
522	Data	DoubleMu	eq1b::eq2j::1200::inf	nominal	mht	0	inf	45	16
523	Data	SingleMu	eq2b::eq2j::200::400	nominal	mht	0	inf	46	89
524	Data	SingleMu	eq2b::eq2j::200::400	nominal	mht	0	inf	60	19
525	Data	SingleMu	eq2b::eq2j::200::400	nominal	mht	0	inf	14	62
526	Data	SingleMu	eq2b::eq2j::200::400	nominal	mht	0	inf	85	68
527	Data	SingleMu	eq2b::eq2j::400::600	nominal	mht	0	inf	41	64
528	Data	SingleMu	eq2b::eq2j::400::600	nominal	mht	0	inf	21	51
529	Data	SingleMu	eq2b::eq2j::600::inf	nominal	mht	0	inf	20	26
530	Data	SingleMu	eq0b::eq3j::200::400	nominal	mht	0	inf	31	93
531	Data	SingleMu	eq0b::eq3j::200::400	nominal	mht	0	inf	83	31
532	Data	SingleMu	eq0b::eq3j::200::400	nominal	mht	0	inf	44	60
533	Data	SingleMu	eq0b::eq3j::200::400	nominal	mht	0	inf	97	23
534	Data	DoubleMu	eq0b::eq3j::200::400	nominal	mht	0	inf	0	0
535	Data	DoubleMu	eq0b::eq3j::200::400	nominal	mht	0	inf	12	70
536	Data	DoubleMu	eq0b::eq3j::200::400	nominal	mht	0	inf	35	75
537	Data	DoubleMu	eq0b::eq3j::200::400	nominal	mht	0	inf	88	55
538	Data	SingleMu	eq0b::eq3j::400::600	nominal	mht	0	inf	26	2
539	Data	SingleMu	eq0b::eq3j::400::600	nominal	mht	0	inf	68	52
540	Data	DoubleMu	eq0b::eq3j::400::600	nominal	mht	0	inf	70	48
541	Data	DoubleMu	eq0b::eq3j::400::600	nominal	mht	0	inf	9	56
542	Data	SingleMu	eq0b::eq3j::600::900	nominal	mht	0	inf	87	3
543	Data	SingleMu	eq0b::eq3j::600::900	nominal	mht	0	inf	10	36
544	Data	DoubleMu	eq0b::eq3j::600::900	nominal	mht	0	inf	64	42
545	Data	DoubleMu	eq0b::eq3j::600::900	nominal	mht	0	inf	72	7
546	Data	SingleMu	eq0b::eq3j::900::1200	nominal	mht	0	inf	90	25
547	Data	SingleMu	eq0b::eq3j::900::1200	nominal	mht	0	inf	43	27
548	Data	DoubleMu	eq0b::eq3j::900::1200	nominal	mht	0	inf	45	24
549	Data	DoubleMu	eq0b::eq3j::900::1200	nominal	mht	0	inf	34	95
550	Data	SingleMu	eq0b::eq3j::1200::inf	nominal	mht	0	inf	94	55
551	Data	DoubleMu	eq0b::eq3j::1200::inf	nominal	mht	0	inf	51	75
552	Data	SingleMu	eq1b::eq3j::200::400	nominal	mht	0	inf	28	54
553	Data	SingleMu	eq1b::eq3j::200::400	nominal	mht	0	inf	28	28
554	Data	SingleMu	eq1b::eq3j::200::400	nominal	mht	0	inf	49	76
555	Data	SingleMu	eq1b::eq3j::200::400	nominal	mht	0	inf	1	99
556	Data	DoubleMu	eq1b::eq3j::200::400	nominal	mht	0	inf	0	0
557	Data	DoubleMu	eq1b::eq3j::200::400	nominal	mht	0	inf	46	18
558	Data	DoubleMu	eq1b::eq3j::200::400	nominal	mht	0	inf	13	43
559	Data	DoubleMu	eq1b::eq3j::200::400	nominal	mht	0	inf	6	98
560	Data	SingleMu	eq1b::eq3j::400::600	nominal	mht	0	inf	44	69
561	Data	SingleMu	eq1b::eq3j::400::600	nominal	mht	0	inf	40	57
562	Data	DoubleMu	eq1b::eq3j::400::600	nominal	mht	0	inf	34	29
563	Data	DoubleMu	eq1b::eq3j::400::600	nominal	mht	0	inf	17	27
564	Data	SingleMu	eq1b::eq3j::600::900	nominal	mht	0	inf	29	71
565	Data	SingleMu	eq1b::eq3j::600::900	nominal	mht	0	inf	8	98
566	Data	DoubleMu	eq1b::eq3j::600::900	nominal	mht	0	inf	98	47
567	Data	DoubleMu	eq1b::eq3j::600::900	nominal	mht	0	inf	60	15
568	Data	SingleMu	eq1b::eq3j::900::1200	nominal	mht	0	inf	68	34
569	Data	SingleMu	eq1b::eq3j::900::1200	nominal	mht	0	inf	3	9
570	Data	DoubleMu	eq1b::eq3j::900::1200	nominal	mht	0	inf	7	75
571	Data	DoubleMu	eq1b::eq3j::900::1200	nominal	mht	0	inf	64	17
572	Data	SingleMu	eq1b::eq3j::1200::inf	nominal	mht	0	inf	2	2
573	Data	DoubleMu	eq1b::eq3j::1200::inf	nominal	mht	0	inf	71	82
574	Data	SingleMu	eq2b::eq3j::200::400	nominal	mht	0	inf	0	0
575	Data	SingleMu	eq2b::eq3j::200::400	nominal	mht	0	inf	92	21
576	Data	SingleMu	eq2b::eq3j::200::400	nominal	mht	0	inf	47	65
577	Data	SingleMu	eq2b::eq3j::200::400	nominal	mht	0	inf	35	95
578	Data	SingleMu	eq2b::eq3j::400::600	nominal	mht	0	inf	45	30
579	Data	SingleMu	eq2b::eq3j::400::600	nominal	mht	0	inf	59	31
580	Data	SingleMu	eq2b::eq3j::600::900	nominal	mht	0	inf	6	45
581	Data	SingleMu	eq2b::eq3j::600::900	nominal	mht	0	inf	89	96
582	Data	SingleMu	eq2b::eq3j::900::1200	nominal	mht	0	inf	69	44
583	Data	SingleMu	eq2b::eq3j::900::1200	nominal	mht	0	inf	88	68
584	Data	SingleMu	eq2b::eq3j::1200::inf	nominal	mht	0	inf	52	51
585	Data	SingleMu	eq3b::eq3j::200::400	nominal	mht	0	inf	0	0
586	Data	SingleMu	eq3b::eq3j::200::400	nominal	mht	0	inf	0	0
587	Data	SingleMu	eq3b::eq3j::200::400	nominal	mht	0	inf	1	90
588	Data	SingleMu	eq3b::eq3j::200::400	nominal	mht	0	inf	33	72
589	Data	SingleMu	eq3b::eq3j::400::600	nominal	mht	0	inf	81	43
590	Data	SingleMu	eq3b::eq3j::400::600	nominal	mht	0	inf	54	63
591	Data	SingleMu	eq3b::eq3j::600::inf	nominal	mht	0	inf	32	34
592	Data	SingleMu	eq0b::eq4j::400::600	nominal	mht	0	inf	88	59
593	Data	SingleMu	eq0b::eq4j::400::600	nominal	mht	0	inf	97	83
594	Data	DoubleMu	eq0b::eq4j::400::600	nominal	mht	0	inf	54	40
595	Data	DoubleMu	eq0b::eq4j::400::600	nominal	mht	0	inf	1	86
596	Data	SingleMu	eq0b::eq4j::600::900	nominal	mht	0	inf	4	95
597	Data	SingleMu	eq0b::eq4j::600::900	nominal	mht	0	inf	48	14
598	Data	DoubleMu	eq0b::eq4j::600::900	nominal	mht	0	inf	12	86
599	Data	DoubleMu	eq0b::eq4j::600::900	nominal	mht	0	inf	20	12
600	Data	SingleMu	eq0b::eq4j::900::1200	nominal	mht	0	inf	76	15
601	Data	SingleMu	eq0b::eq4j::900::1200	nominal	mht	0	inf	35	14
602	Data	DoubleMu	eq0b::eq4j::900::1200	nominal	mht	0	inf	6	88
603	Data	DoubleMu	eq0b::eq4j::900::1200	nominal	mht	0	inf	1	33
604	Data	SingleMu	eq0b::eq4j::1200::inf	nominal	mht	0	inf	14	10
605	Data	DoubleMu	eq0b::eq4j::1200::inf	nominal	mht	0	inf	69	69
606	Data	SingleMu	eq1b::eq4j::400::600	nominal	mht	0	inf	13	71
607	Data	SingleMu	eq1b::eq4j::400::600	nominal	mht	0	inf	42	48
608	Data	DoubleMu	eq1b::eq4j::400::600	nominal	mht	0	inf	83	89
609	Data	DoubleMu	eq1b::eq4j::400::600	nominal	mht	0	inf	80	6
610	Data	SingleMu	eq1b::eq4j::600::900	nominal	mht	0	inf	87	70
611	Data	SingleMu	eq1b::eq4j::600::900	nominal	mht	0	inf	96	24
612	Data	DoubleMu	eq1b::eq4j::600::900	nominal	mht	0	inf	4	78
613	Data	DoubleMu	eq1b::eq4j::600::900	nominal	mht	0	inf	77	48
614	Data	SingleMu	eq1b::eq4j::900::1200	nominal	mht	0	inf	56	6
615	Data	SingleMu	eq1b::eq4j::900::1200	nominal	mht	0	inf	71	72
616	Data	DoubleMu	eq1b::eq4j::900::1200	nominal	mht	0	inf	86	59
617	Data	DoubleMu	eq1b::eq4j::900::1200	nominal	mht	0	inf	4	82
618	Data	SingleMu	eq1b::eq4j::1200::inf	nominal	mht	0	inf	65	51
619	Data	DoubleMu	eq1b::eq4j::1200::inf	nominal	mht	0	inf	38	30
620	Data	SingleMu	eq2b::eq4j::400::600	nominal	mht	0	inf	68	50
621	Data	SingleMu	eq2b::eq4j::400::600	nominal	mht	0	inf	14	40
622	Data	SingleMu	eq2b::eq4j::600::900	nominal	mht	0	inf	97	73
623	Data	SingleMu	eq2b::eq4j::600::900	nominal	mht	0	inf	91	67
624	Data	SingleMu	eq2b::eq4j::900::1200	nominal	mht	0	inf	7	79
625	Data	SingleMu	eq2b::eq4j::900::1200	nominal	mht	0	inf	83	99
626	Data	SingleMu	eq2b::eq4j::1200::inf	nominal	mht	0	inf	80	59
627	Data	SingleMu	eq3b::eq4j::400::600	nominal	mht	0	inf	0	68
628	Data	SingleMu	eq3b::eq4j::400::600	nominal	mht	0	inf	81	76
629	Data	SingleMu	eq3b::eq4j::600::900	nominal	mht	0	inf	44	67
630	Data	SingleMu	eq3b::eq4j::600::900	nominal	mht	0	inf	21	61
631	Data	SingleMu	eq3b::eq4j::900::inf	nominal	mht	0	inf	15	87
632	Data	SingleMu	eq0b::eq5j::400::600	nominal	mht	0	inf	45	94
633	Data	SingleMu	eq0b::eq5j::400::600	nominal	mht	0	inf	75	72
634	Data	DoubleMu	eq0b::eq5j::400::600	nominal	mht	0	inf	77	26
635	Data	DoubleMu	eq0b::eq5j::400::600	nominal	mht	0	inf	53	28
636	Data	SingleMu	eq0b::eq5j::600::900	nominal	mht	0	inf	66	93
637	Data	SingleMu	eq0b::eq5j::600::900	nominal	mht	0	inf	9	26
638	Data	DoubleMu	eq0b::eq5j::600::900	nominal	mht	0	inf	37	55
639	Data	DoubleMu	eq0b::eq5j::600::900	nominal	mht	0	inf	32	25
640	Data	SingleMu	eq0b::eq5j::900::1200	nominal	mht	0	inf	48	66
641	Data	SingleMu	eq0b::eq5j::900::1200	nominal	mht	0	inf	53	7
642	Data	DoubleMu	eq0b::eq5j::900::1200	nominal	mht	0	inf	44	38
643	Data	DoubleMu	eq0b::eq5j::900::1200	nominal	mht	0	inf	7	42
644	Data	SingleMu	eq0b::eq5j::1200::inf	nominal	mht	0	inf	72	16
645	Data	DoubleMu	eq0b::eq5j::1200::inf	nominal	mht	0	inf	54	30
646	Data	SingleMu	eq1b::eq5j::400::600	nominal	mht	0	inf	43	32
647	Data	SingleMu	eq1b::eq5j::400::600	nominal	mht	0	inf	60	2
648	Data	DoubleMu	eq1b::eq5j::400::600	nominal	mht	0	inf	99	3
649	Data	DoubleMu	eq1b::eq5j::400::600	nominal	mht	0	inf	91	11
650	Data	SingleMu	eq1b::eq5j::600::900	nominal	mht	0	inf	30	15
651	Data	SingleMu	eq1b::eq5j::600::900	nominal	mht	0	inf	41	3
652	Data	DoubleMu	eq1b::eq5j::600::900	nominal	mht	0	inf	8	11
653	Data	DoubleMu	eq1b::eq5j::600::900	nominal	mht	0	inf	16	2
654	Data	SingleMu	eq1b::eq5j::900::1200	nominal	mht	0	inf	76	97
655	Data	SingleMu	eq1b::eq5j::900::1200	nominal	mht	0	inf	95	70
656	Data	DoubleMu	eq1b::eq5j::900::1200	nominal	mht	0	inf	32	35
657	Data	DoubleMu	eq1b::eq5j::900::1200	nominal	mht	0	inf	33	20
658	Data	SingleMu	eq1b::eq5j::1200::inf	nominal	mht	0	inf	93	69
659	Data	DoubleMu	eq1b::eq5j::1200::inf	nominal	mht	0	inf	83	28
660	Data	SingleMu	eq2b::eq5j::400::600	nominal	mht	0	inf	88	0
661	Data	SingleMu	eq2b::eq5j::400::600	nominal	mht	0	inf	53	85
662	Data	SingleMu	eq2b::eq5j::600::900	nominal	mht	0	inf	35	90
663	Data	SingleMu	eq2b::eq5j::600::900	nominal	mht	0	inf	82	26
664	Data	SingleMu	eq2b::eq5j::900::1200	nominal	mht	0	inf	86	66
665	Data	SingleMu	eq2b::eq5j::900::1200	nominal	mht	0	inf	11	16
666	Data	SingleMu	eq2b::eq5j::1200::inf	nominal	mht	0	inf	91	69
667	Data	SingleMu	eq3b::eq5j::400::600	nominal	mht	0	inf	91	33
668	Data	SingleMu	eq3b::eq5j::400::600	nominal	mht	0	inf	15	16
669	Data	SingleMu	eq3b::eq5j::600::900	nominal	mht	0	inf	2	55
670	Data	SingleMu	eq3b::eq5j::600::900	nominal	mht	0	inf	85	95
671	Data	SingleMu	eq3b::eq5j::900::inf	nominal	mht	0	inf	14	78
672	Data	SingleMu	ge4b::eq5j::400::inf	nominal	mht	0	inf	38	1
673	Data	DoubleMu	ge4b::eq5j::400::inf	nominal	mht	0	inf	0	0
674	Data	SingleMu	eq0b::ge6j::400::600	nominal	mht	0	inf	23	88
675	Data	SingleMu	eq0b::ge6j::400::600	nominal	mht	0	inf	59	87
676	Data	DoubleMu	eq0b::ge6j::400::600	nominal	mht	0	inf	0	0
677	Data	DoubleMu	eq0b::ge6j::400::600	nominal	mht	0	inf	96	19
678	Data	SingleMu	eq0b::ge6j::600::900	nominal	mht	0	inf	51	52
679	Data	SingleMu	eq0b::ge6j::600::900	nominal	mht	0	inf	95	29
680	Data	DoubleMu	eq0b::ge6j::600::900	nominal	mht	0	inf	10	17
681	Data	DoubleMu	eq0b::ge6j::600::900	nominal	mht	0	inf	52	92
682	Data	SingleMu	eq0b::ge6j::900::1200	nominal	mht	0	inf	88	74
683	Data	SingleMu	eq0b::ge6j::900::1200	nominal	mht	0	inf	39	60
684	Data	DoubleMu	eq0b::ge6j::900::1200	nominal	mht	0	inf	61	0
685	Data	DoubleMu	eq0b::ge6j::900::1200	nominal	mht	0	inf	5	23
686	Data	SingleMu	eq0b::ge6j::1200::inf	nominal	mht	0	inf	61	7
687	Data	DoubleMu	eq0b::ge6j::1200::inf	nominal	mht	0	inf	28	63
688	Data	SingleMu	eq1b::ge6j::400::600	nominal	mht	0	inf	23	80
689	Data	SingleMu	eq1b::ge6j::400::600	nominal	mht	0	inf	88	64
690	Data	DoubleMu	eq1b::ge6j::400::600	nominal	mht	0	inf	11	45
691	Data	DoubleMu	eq1b::ge6j::400::600	nominal	mht	0	inf	0	4
692	Data	SingleMu	eq1b::ge6j::600::900	nominal	mht	0	inf	76	36
693	Data	SingleMu	eq1b::ge6j::600::900	nominal	mht	0	inf	61	90
694	Data	DoubleMu	eq1b::ge6j::600::900	nominal	mht	0	inf	89	42
695	Data	DoubleMu	eq1b::ge6j::600::900	nominal	mht	0	inf	52	35
696	Data	SingleMu	eq1b::ge6j::900::1200	nominal	mht	0	inf	0	78
697	Data	SingleMu	eq1b::ge6j::900::1200	nominal	mht	0	inf	86	97
698	Data	DoubleMu	eq1b::ge6j::900::1200	nominal	mht	0	inf	1	15
699	Data	DoubleMu	eq1b::ge6j::900::1200	nominal	mht	0	inf	16	72
700	Data	SingleMu	eq1b::ge6j::1200::inf	nominal	mht	0	inf	97	12
701	Data	DoubleMu	eq1b::ge6j::1200::inf	nominal	mht	0	inf	47	15
702	Data	SingleMu	eq2b::ge6j::400::600	nominal	mht	0	inf	86	65
703	Data	SingleMu	eq2b::ge6j::400::600	nominal	mht	0	inf	66	9
704	Data	SingleMu	eq2b::ge6j::600::900	nominal	mht	0	inf	31	88
705	Data	SingleMu	eq2b::ge6j::600::900	nominal	mht	0	inf	9	91
706	Data	SingleMu	eq2b::ge6j::900::1200	nominal	mht	0	inf	81	13
707	Data	SingleMu	eq2b::ge6j::900::1200	nominal	mht	0	inf	60	15
708	Data	SingleMu	eq2b::ge6j::1200::inf	nominal	mht	0	inf	9	80
709	Data	SingleMu	eq3b::ge6j::400::600	nominal	mht	0	inf	6	63
710	Data	SingleMu	eq3b::ge6j::400::600	nominal	mht	0	inf	95	57
711	Data	SingleMu	eq3b::ge6j::600::900	nominal	mht	0	inf	36	88
712	Data	SingleMu	eq3b::ge6j::600::900	nominal	mht	0	inf	11	68
713	Data	SingleMu	eq3b::ge6j::900::1200	nominal	mht	0	inf	15	99
714	Data	SingleMu	eq3b::ge6j::900::1200	nominal	mht	0	inf	15	9
715	Data	SingleMu	eq3b::ge6j::1200::inf	nominal	mht	0	inf	91	60
716	Data	SingleMu	ge4b::ge6j::400::inf	nominal	mht	0	inf	62	52
717	Data	DoubleMu	ge4b::ge6j::400::inf	nominal	mht	0	inf	0	0
718	Data	SingleMu	eq0b::ge2a::200::400	nominal	mht	0	inf	43	6
719	Data	SingleMu	eq0b::ge2a::200::400	nominal	mht	0	inf	83	1
720	Data	SingleMu	eq0b::ge2a::200::400	nominal	mht	0	inf	76	24
721	Data	SingleMu	eq0b::ge2a::200::400	nominal	mht	0	inf	84	50
722	Data	DoubleMu	eq0b::ge2a::200::400	nominal	mht	0	inf	75	71
723	Data	DoubleMu	eq0b::ge2a::200::400	nominal	mht	0	inf	25	55
724	Data	DoubleMu	eq0b::ge2a::200::400	nominal	mht	0	inf	49	66
725	Data	DoubleMu	eq0b::ge2a::200::400	nominal	mht	0	inf	4	9
726	Data	SingleMu	eq0b::ge2a::400::600	nominal	mht	0	inf	37	76
727	Data	SingleMu	eq0b::ge2a::400::600	nominal	mht	0	inf	57	70
728	Data	DoubleMu	eq0b::ge2a::400::600	nominal	mht	0	inf	83	55
729	Data	DoubleMu	eq0b::ge2a::400::600	nominal	mht	0	inf	23	75
730	Data	SingleMu	eq0b::ge2a::600::900	nominal	mht	0	inf	42	93
731	Data	SingleMu	eq0b::ge2a::600::900	nominal	mht	0	inf	32	32
732	Data	DoubleMu	eq0b::ge2a::600::900	nominal	mht	0	inf	97	33
733	Data	DoubleMu	eq0b::ge2a::600::900	nominal	mht	0	inf	86	3
734	Data	SingleMu	eq0b::ge2a::900::inf	nominal	mht	0	inf	39	4
735	Data	DoubleMu	eq0b::ge2a::900::inf	nominal	mht	0	inf	33	39
736	Data	SingleMu	eq1b::ge2a::200::400	nominal	mht	0	inf	2	69
737	Data	SingleMu	eq1b::ge2a::200::400	nominal	mht	0	inf	63	12
738	Data	SingleMu	eq1b::ge2a::200::400	nominal	mht	0	inf	89	69
739	Data	SingleMu	eq1b::ge2a::200::400	nominal	mht	0	inf	33	26
740	Data	DoubleMu	eq1b::ge2a::200::400	nominal	mht	0	inf	41	58
741	Data	DoubleMu	eq1b::ge2a::200::400	nominal	mht	0	inf	81	89
742	Data	DoubleMu	eq1b::ge2a::200::400	nominal	mht	0	inf	71	83
743	Data	DoubleMu	eq1b::ge2a::200::400	nominal	mht	0	inf	33	72
744	Data	SingleMu	eq1b::ge2a::400::600	nominal	mht	0	inf	21	71
745	Data	SingleMu	eq1b::ge2a::400::600	nominal	mht	0	inf	33	21
746	Data	DoubleMu	eq1b::ge2a::400::600	nominal	mht	0	inf	43	75
747	Data	DoubleMu	eq1b::ge2a::400::600	nominal	mht	0	inf	36	94
748	Data	SingleMu	eq1b::ge2a::600::900	nominal	mht	0	inf	14	47
749	Data	SingleMu	eq1b::ge2a::600::900	nominal	mht	0	inf	69	72
750	Data	DoubleMu	eq1b::ge2a::600::900	nominal	mht	0	inf	48	60
751	Data	DoubleMu	eq1b::ge2a::600::900	nominal	mht	0	inf	34	81
752	Data	SingleMu	eq1b::ge2a::900::inf	nominal	mht	0	inf	5	39
753	Data	DoubleMu	eq1b::ge2a::900::inf	nominal	mht	0	inf	80	46
754	Data	SingleMu	eq2b::ge2a::200::400	nominal	mht	0	inf	78	35
755	Data	SingleMu	eq2b::ge2a::200::400	nominal	mht	0	inf	87	50
756	Data	SingleMu	eq2b::ge2a::200::400	nominal	mht	0	inf	82	69
757	Data	SingleMu	eq2b::ge2a::200::400	nominal	mht	0	inf	57	42
758	Data	SingleMu	eq2b::ge2a::400::600	nominal	mht	0	inf	70	89
759	Data	SingleMu	eq2b::ge2a::400::600	nominal	mht	0	inf	99	28
760	Data	SingleMu	eq2b::ge2a::600::900	nominal	mht	0	inf	51	92
761	Data	SingleMu	eq2b::ge2a::600::900	nominal	mht	0	inf	55	82
762	Data	SingleMu	eq2b::ge2a::900::inf	nominal	mht	0	inf	74	12
763	Data	SingleMu	eq3b::ge2a::200::400	nominal	mht	0	inf	14	79
764	Data	SingleMu	eq3b::ge2a::200::400	nominal	mht	0	inf	96	80
765	Data	SingleMu	eq3b::ge2a::200::400	nominal	mht	0	inf	35	80
766	Data	SingleMu	eq3b::ge2a::200::400	nominal	mht	0	inf	59	72
767	Data	SingleMu	eq3b::ge2a::400::600	nominal	mht	0	inf	33	68
768	Data	SingleMu	eq3b::ge2a::400::600	nominal	mht	0	inf	73	35
769	Data	SingleMu	eq3b::ge2a::600::inf	nominal	mht	0	inf	91	65
